info face="Comic Sans MS" size=-30 bold=1 italic=0 charset="" unicode=1 stretchH=100 smooth=1 aa=1 padding=0,0,0,0 spacing=1,1 outline=1
common lineHeight=41 base=32 scaleW=512 scaleH=512 pages=1 packed=0 alphaChnl=0 redChnl=4 greenChnl=4 blueChnl=4
page id=0 file="comicsans.png"
chars count=192
char id=0    x=0     y=0     width=300   height=413   xoffset=0     yoffset=0     xadvance=300   page=0  chnl=15
char id=32   x=501   y=98    width=3     height=3     xoffset=-1    yoffset=31    xadvance=13    page=0  chnl=15
char id=33   x=491   y=300   width=6     height=26    xoffset=1     yoffset=8     xadvance=7     page=0  chnl=15
char id=34   x=318   y=402   width=11    height=12    xoffset=0     yoffset=8     xadvance=13    page=0  chnl=15
char id=35   x=338   y=137   width=27    height=28    xoffset=-1    yoffset=6     xadvance=25    page=0  chnl=15
char id=36   x=301   y=0     width=20    height=35    xoffset=1     yoffset=4     xadvance=21    page=0  chnl=15
char id=37   x=301   y=331   width=26    height=25    xoffset=1     yoffset=8     xadvance=25    page=0  chnl=15
char id=38   x=349   y=166   width=21    height=27    xoffset=0     yoffset=8     xadvance=20    page=0  chnl=15
char id=39   x=506   y=218   width=5     height=12    xoffset=3     yoffset=8     xadvance=13    page=0  chnl=15
char id=40   x=454   y=102   width=12    height=31    xoffset=0     yoffset=8     xadvance=11    page=0  chnl=15
char id=41   x=467   y=102   width=12    height=31    xoffset=-1    yoffset=8     xadvance=11    page=0  chnl=15
char id=42   x=247   y=414   width=17    height=14    xoffset=-1    yoffset=8     xadvance=16    page=0  chnl=15
char id=43   x=205   y=414   width=15    height=15    xoffset=1     yoffset=15    xadvance=18    page=0  chnl=15
char id=44   x=419   y=399   width=8     height=9     xoffset=2     yoffset=29    xadvance=13    page=0  chnl=15
char id=45   x=319   y=415   width=14    height=5     xoffset=2     yoffset=22    xadvance=18    page=0  chnl=15
char id=46   x=449   y=398   width=6     height=6     xoffset=3     yoffset=29    xadvance=13    page=0  chnl=15
char id=47   x=424   y=303   width=16    height=26    xoffset=0     yoffset=8     xadvance=15    page=0  chnl=15
char id=48   x=436   y=276   width=18    height=26    xoffset=0     yoffset=8     xadvance=18    page=0  chnl=15
char id=49   x=489   y=327   width=14    height=25    xoffset=2     yoffset=8     xadvance=18    page=0  chnl=15
char id=50   x=367   y=331   width=17    height=25    xoffset=0     yoffset=8     xadvance=18    page=0  chnl=15
char id=51   x=491   y=273   width=17    height=26    xoffset=0     yoffset=8     xadvance=18    page=0  chnl=15
char id=52   x=328   y=331   width=19    height=25    xoffset=-1    yoffset=8     xadvance=18    page=0  chnl=15
char id=53   x=360   y=277   width=18    height=26    xoffset=0     yoffset=8     xadvance=18    page=0  chnl=15
char id=54   x=379   y=276   width=18    height=26    xoffset=0     yoffset=8     xadvance=18    page=0  chnl=15
char id=55   x=430   y=249   width=19    height=26    xoffset=0     yoffset=8     xadvance=18    page=0  chnl=15
char id=56   x=470   y=246   width=19    height=26    xoffset=-1    yoffset=8     xadvance=18    page=0  chnl=15
char id=57   x=417   y=276   width=18    height=26    xoffset=0     yoffset=8     xadvance=18    page=0  chnl=15
char id=58   x=504   y=327   width=6     height=17    xoffset=4     yoffset=14    xadvance=13    page=0  chnl=15
char id=59   x=449   y=356   width=8     height=22    xoffset=2     yoffset=16    xadvance=13    page=0  chnl=15
char id=60   x=221   y=414   width=12    height=15    xoffset=3     yoffset=16    xadvance=18    page=0  chnl=15
char id=61   x=330   y=402   width=14    height=11    xoffset=2     yoffset=18    xadvance=18    page=0  chnl=15
char id=62   x=99    y=414   width=13    height=16    xoffset=3     yoffset=16    xadvance=18    page=0  chnl=15
char id=63   x=458   y=303   width=16    height=26    xoffset=1     yoffset=8     xadvance=17    page=0  chnl=15
char id=64   x=366   y=137   width=27    height=28    xoffset=0     yoffset=7     xadvance=28    page=0  chnl=15
char id=65   x=323   y=250   width=21    height=26    xoffset=0     yoffset=8     xadvance=22    page=0  chnl=15
char id=66   x=490   y=246   width=19    height=26    xoffset=0     yoffset=8     xadvance=19    page=0  chnl=15
char id=67   x=301   y=277   width=19    height=26    xoffset=0     yoffset=8     xadvance=19    page=0  chnl=15
char id=68   x=409   y=249   width=20    height=26    xoffset=2     yoffset=8     xadvance=22    page=0  chnl=15
char id=69   x=398   y=276   width=18    height=26    xoffset=1     yoffset=8     xadvance=19    page=0  chnl=15
char id=70   x=319   y=304   width=17    height=26    xoffset=0     yoffset=8     xadvance=18    page=0  chnl=15
char id=71   x=483   y=219   width=22    height=26    xoffset=0     yoffset=8     xadvance=20    page=0  chnl=15
char id=72   x=345   y=250   width=21    height=26    xoffset=1     yoffset=8     xadvance=23    page=0  chnl=15
char id=73   x=455   y=330   width=16    height=25    xoffset=0     yoffset=8     xadvance=16    page=0  chnl=15
char id=74   x=371   y=166   width=21    height=27    xoffset=0     yoffset=8     xadvance=20    page=0  chnl=15
char id=75   x=413   y=166   width=18    height=27    xoffset=1     yoffset=8     xadvance=18    page=0  chnl=15
char id=76   x=473   y=273   width=17    height=26    xoffset=1     yoffset=8     xadvance=17    page=0  chnl=15
char id=77   x=474   y=134   width=25    height=27    xoffset=1     yoffset=8     xadvance=26    page=0  chnl=15
char id=78   x=325   y=167   width=23    height=27    xoffset=1     yoffset=8     xadvance=24    page=0  chnl=15
char id=79   x=364   y=222   width=24    height=26    xoffset=0     yoffset=8     xadvance=24    page=0  chnl=15
char id=80   x=390   y=303   width=16    height=26    xoffset=0     yoffset=8     xadvance=16    page=0  chnl=15
char id=81   x=420   y=70    width=27    height=32    xoffset=0     yoffset=8     xadvance=26    page=0  chnl=15
char id=82   x=393   y=166   width=19    height=27    xoffset=0     yoffset=7     xadvance=19    page=0  chnl=15
char id=83   x=301   y=250   width=21    height=26    xoffset=0     yoffset=8     xadvance=21    page=0  chnl=15
char id=84   x=301   y=167   width=23    height=27    xoffset=-1    yoffset=7     xadvance=21    page=0  chnl=15
char id=85   x=437   y=222   width=22    height=26    xoffset=0     yoffset=8     xadvance=22    page=0  chnl=15
char id=86   x=367   y=249   width=20    height=26    xoffset=0     yoffset=8     xadvance=20    page=0  chnl=15
char id=87   x=444   y=135   width=29    height=27    xoffset=2     yoffset=8     xadvance=31    page=0  chnl=15
char id=88   x=389   y=222   width=23    height=26    xoffset=-1    yoffset=8     xadvance=22    page=0  chnl=15
char id=89   x=388   y=249   width=20    height=26    xoffset=-1    yoffset=8     xadvance=19    page=0  chnl=15
char id=90   x=460   y=219   width=22    height=26    xoffset=-1    yoffset=8     xadvance=21    page=0  chnl=15
char id=91   x=501   y=66    width=10    height=31    xoffset=1     yoffset=8     xadvance=11    page=0  chnl=15
char id=92   x=493   y=190   width=15    height=27    xoffset=1     yoffset=8     xadvance=17    page=0  chnl=15
char id=93   x=501   y=34    width=10    height=31    xoffset=0     yoffset=8     xadvance=11    page=0  chnl=15
char id=94   x=380   y=401   width=16    height=9     xoffset=2     yoffset=7     xadvance=18    page=0  chnl=15
char id=95   x=456   y=398   width=23    height=5     xoffset=-2    yoffset=33    xadvance=19    page=0  chnl=15
char id=96   x=408   y=400   width=10    height=9     xoffset=0     yoffset=7     xadvance=17    page=0  chnl=15
char id=97   x=429   y=379   width=17    height=18    xoffset=0     yoffset=16    xadvance=17    page=0  chnl=15
char id=98   x=321   y=277   width=19    height=26    xoffset=-1    yoffset=8     xadvance=18    page=0  chnl=15
char id=99   x=83    y=414   width=15    height=18    xoffset=0     yoffset=16    xadvance=15    page=0  chnl=15
char id=100  x=301   y=304   width=17    height=26    xoffset=0     yoffset=8     xadvance=18    page=0  chnl=15
char id=101  x=483   y=377   width=17    height=18    xoffset=0     yoffset=16    xadvance=17    page=0  chnl=15
char id=102  x=409   y=194   width=16    height=27    xoffset=-1    yoffset=8     xadvance=15    page=0  chnl=15
char id=103  x=403   y=330   width=17    height=25    xoffset=-1    yoffset=16    xadvance=16    page=0  chnl=15
char id=104  x=373   y=304   width=16    height=26    xoffset=1     yoffset=8     xadvance=17    page=0  chnl=15
char id=105  x=505   y=300   width=6     height=24    xoffset=1     yoffset=10    xadvance=8     page=0  chnl=15
char id=106  x=440   y=103   width=13    height=31    xoffset=-2    yoffset=10    xadvance=12    page=0  chnl=15
char id=107  x=407   y=303   width=16    height=26    xoffset=1     yoffset=8     xadvance=16    page=0  chnl=15
char id=108  x=498   y=300   width=6     height=26    xoffset=1     yoffset=8     xadvance=8     page=0  chnl=15
char id=109  x=481   y=356   width=24    height=20    xoffset=0     yoffset=15    xadvance=23    page=0  chnl=15
char id=110  x=34    y=414   width=16    height=18    xoffset=0     yoffset=16    xadvance=16    page=0  chnl=15
char id=111  x=465   y=378   width=17    height=18    xoffset=-1    yoffset=16    xadvance=16    page=0  chnl=15
char id=112  x=421   y=330   width=16    height=25    xoffset=0     yoffset=16    xadvance=16    page=0  chnl=15
char id=113  x=472   y=330   width=16    height=25    xoffset=0     yoffset=16    xadvance=16    page=0  chnl=15
char id=114  x=51    y=414   width=15    height=18    xoffset=0     yoffset=16    xadvance=14    page=0  chnl=15
char id=115  x=67    y=414   width=15    height=18    xoffset=0     yoffset=16    xadvance=15    page=0  chnl=15
char id=116  x=408   y=356   width=16    height=23    xoffset=-1    yoffset=11    xadvance=14    page=0  chnl=15
char id=117  x=0     y=414   width=16    height=18    xoffset=0     yoffset=16    xadvance=16    page=0  chnl=15
char id=118  x=17    y=414   width=16    height=18    xoffset=-1    yoffset=16    xadvance=15    page=0  chnl=15
char id=119  x=368   y=382   width=22    height=18    xoffset=-1    yoffset=16    xadvance=21    page=0  chnl=15
char id=120  x=391   y=381   width=18    height=18    xoffset=-1    yoffset=16    xadvance=18    page=0  chnl=15
char id=121  x=348   y=331   width=18    height=25    xoffset=0     yoffset=16    xadvance=17    page=0  chnl=15
char id=122  x=447   y=379   width=17    height=18    xoffset=-1    yoffset=16    xadvance=16    page=0  chnl=15
char id=123  x=410   y=105   width=14    height=31    xoffset=-2    yoffset=8     xadvance=11    page=0  chnl=15
char id=124  x=504   y=0     width=6     height=32    xoffset=4     yoffset=6     xadvance=13    page=0  chnl=15
char id=125  x=425   y=103   width=14    height=31    xoffset=-2    yoffset=8     xadvance=11    page=0  chnl=15
char id=126  x=361   y=401   width=18    height=9     xoffset=0     yoffset=17    xadvance=18    page=0  chnl=15
char id=160  x=508   y=98    width=3     height=3     xoffset=-1    yoffset=31    xadvance=14    page=0  chnl=15
char id=161  x=504   y=158   width=7     height=26    xoffset=1     yoffset=8     xadvance=7     page=0  chnl=15
char id=162  x=301   y=137   width=18    height=29    xoffset=0     yoffset=4     xadvance=18    page=0  chnl=15
char id=163  x=394   y=137   width=25    height=28    xoffset=-2    yoffset=8     xadvance=24    page=0  chnl=15
char id=164  x=301   y=382   width=21    height=19    xoffset=-1    yoffset=12    xadvance=18    page=0  chnl=15
char id=165  x=301   y=357   width=18    height=24    xoffset=0     yoffset=10    xadvance=18    page=0  chnl=15
char id=166  x=497   y=0     width=6     height=33    xoffset=4     yoffset=6     xadvance=13    page=0  chnl=15
char id=167  x=455   y=276   width=17    height=26    xoffset=1     yoffset=8     xadvance=19    page=0  chnl=15
char id=168  x=428   y=399   width=13    height=6     xoffset=2     yoffset=10    xadvance=17    page=0  chnl=15
char id=169  x=458   y=356   width=22    height=21    xoffset=0     yoffset=8     xadvance=24    page=0  chnl=15
char id=170  x=173   y=414   width=15    height=15    xoffset=1     yoffset=6     xadvance=18    page=0  chnl=15
char id=171  x=113   y=414   width=21    height=15    xoffset=-1    yoffset=16    xadvance=19    page=0  chnl=15
char id=172  x=345   y=401   width=15    height=10    xoffset=2     yoffset=21    xadvance=18    page=0  chnl=15
char id=173  x=304   y=415   width=14    height=5     xoffset=2     yoffset=22    xadvance=18    page=0  chnl=15
char id=174  x=425   y=356   width=23    height=22    xoffset=0     yoffset=8     xadvance=24    page=0  chnl=15
char id=175  x=480   y=397   width=23    height=5     xoffset=-2    yoffset=3     xadvance=19    page=0  chnl=15
char id=176  x=304   y=402   width=13    height=12    xoffset=2     yoffset=6     xadvance=18    page=0  chnl=15
char id=177  x=323   y=382   width=15    height=19    xoffset=1     yoffset=16    xadvance=18    page=0  chnl=15
char id=178  x=234   y=414   width=12    height=15    xoffset=3     yoffset=5     xadvance=18    page=0  chnl=15
char id=179  x=292   y=414   width=11    height=14    xoffset=4     yoffset=6     xadvance=18    page=0  chnl=15
char id=180  x=397   y=400   width=10    height=9     xoffset=2     yoffset=7     xadvance=17    page=0  chnl=15
char id=181  x=387   y=357   width=20    height=23    xoffset=-1    yoffset=16    xadvance=18    page=0  chnl=15
char id=182  x=420   y=137   width=23    height=28    xoffset=-1    yoffset=8     xadvance=23    page=0  chnl=15
char id=183  x=442   y=398   width=6     height=6     xoffset=6     yoffset=19    xadvance=18    page=0  chnl=15
char id=184  x=501   y=377   width=10    height=11    xoffset=4     yoffset=29    xadvance=17    page=0  chnl=15
char id=185  x=280   y=414   width=11    height=14    xoffset=4     yoffset=6     xadvance=18    page=0  chnl=15
char id=186  x=157   y=414   width=15    height=15    xoffset=2     yoffset=6     xadvance=18    page=0  chnl=15
char id=187  x=135   y=414   width=21    height=15    xoffset=-1    yoffset=16    xadvance=19    page=0  chnl=15
char id=188  x=384   y=71    width=18    height=33    xoffset=0     yoffset=6     xadvance=18    page=0  chnl=15
char id=189  x=365   y=71    width=18    height=33    xoffset=0     yoffset=6     xadvance=18    page=0  chnl=15
char id=190  x=345   y=71    width=19    height=33    xoffset=-1    yoffset=6     xadvance=18    page=0  chnl=15
char id=191  x=441   y=303   width=16    height=26    xoffset=0     yoffset=8     xadvance=17    page=0  chnl=15
char id=192  x=369   y=36    width=21    height=34    xoffset=1     yoffset=0     xadvance=22    page=0  chnl=15
char id=193  x=301   y=71    width=21    height=33    xoffset=1     yoffset=1     xadvance=22    page=0  chnl=15
char id=194  x=347   y=36    width=21    height=34    xoffset=1     yoffset=0     xadvance=22    page=0  chnl=15
char id=195  x=477   y=35    width=23    height=33    xoffset=1     yoffset=1     xadvance=22    page=0  chnl=15
char id=196  x=349   y=105   width=21    height=31    xoffset=1     yoffset=3     xadvance=22    page=0  chnl=15
char id=197  x=323   y=71    width=21    height=33    xoffset=1     yoffset=1     xadvance=22    page=0  chnl=15
char id=198  x=301   y=223   width=35    height=26    xoffset=-1    yoffset=8     xadvance=33    page=0  chnl=15
char id=199  x=371   y=105   width=19    height=31    xoffset=0     yoffset=8     xadvance=19    page=0  chnl=15
char id=200  x=362   y=0     width=18    height=35    xoffset=1     yoffset=-1    xadvance=19    page=0  chnl=15
char id=201  x=381   y=0     width=18    height=35    xoffset=1     yoffset=-1    xadvance=19    page=0  chnl=15
char id=202  x=343   y=0     width=18    height=35    xoffset=1     yoffset=-1    xadvance=19    page=0  chnl=15
char id=203  x=448   y=69    width=18    height=32    xoffset=1     yoffset=2     xadvance=19    page=0  chnl=15
char id=204  x=484   y=69    width=16    height=32    xoffset=1     yoffset=1     xadvance=16    page=0  chnl=15
char id=205  x=467   y=69    width=16    height=32    xoffset=0     yoffset=1     xadvance=16    page=0  chnl=15
char id=206  x=403   y=71    width=16    height=33    xoffset=1     yoffset=0     xadvance=16    page=0  chnl=15
char id=207  x=480   y=102   width=16    height=30    xoffset=0     yoffset=3     xadvance=16    page=0  chnl=15
char id=208  x=413   y=222   width=23    height=26    xoffset=-2    yoffset=8     xadvance=22    page=0  chnl=15
char id=209  x=450   y=0     width=23    height=34    xoffset=1     yoffset=1     xadvance=24    page=0  chnl=15
char id=210  x=425   y=0     width=24    height=34    xoffset=1     yoffset=0     xadvance=24    page=0  chnl=15
char id=211  x=400   y=0     width=24    height=34    xoffset=0     yoffset=0     xadvance=24    page=0  chnl=15
char id=212  x=427   y=35    width=24    height=33    xoffset=1     yoffset=1     xadvance=24    page=0  chnl=15
char id=213  x=452   y=35    width=24    height=33    xoffset=1     yoffset=1     xadvance=24    page=0  chnl=15
char id=214  x=301   y=105   width=24    height=31    xoffset=0     yoffset=3     xadvance=24    page=0  chnl=15
char id=215  x=265   y=414   width=14    height=14    xoffset=2     yoffset=16    xadvance=18    page=0  chnl=15
char id=216  x=337   y=223   width=26    height=26    xoffset=-1    yoffset=8     xadvance=24    page=0  chnl=15
char id=217  x=324   y=36    width=22    height=34    xoffset=0     yoffset=0     xadvance=22    page=0  chnl=15
char id=218  x=474   y=0     width=22    height=34    xoffset=0     yoffset=0     xadvance=22    page=0  chnl=15
char id=219  x=301   y=36    width=22    height=34    xoffset=0     yoffset=0     xadvance=22    page=0  chnl=15
char id=220  x=326   y=105   width=22    height=31    xoffset=0     yoffset=3     xadvance=22    page=0  chnl=15
char id=221  x=322   y=0     width=20    height=35    xoffset=0     yoffset=-1    xadvance=19    page=0  chnl=15
char id=222  x=337   y=304   width=17    height=26    xoffset=0     yoffset=8     xadvance=16    page=0  chnl=15
char id=223  x=477   y=191   width=15    height=27    xoffset=1     yoffset=8     xadvance=16    page=0  chnl=15
char id=224  x=373   y=194   width=17    height=27    xoffset=0     yoffset=7     xadvance=17    page=0  chnl=15
char id=225  x=391   y=194   width=17    height=27    xoffset=0     yoffset=7     xadvance=17    page=0  chnl=15
char id=226  x=432   y=166   width=17    height=27    xoffset=0     yoffset=7     xadvance=17    page=0  chnl=15
char id=227  x=355   y=304   width=17    height=26    xoffset=0     yoffset=8     xadvance=17    page=0  chnl=15
char id=228  x=320   y=357   width=17    height=24    xoffset=0     yoffset=10    xadvance=17    page=0  chnl=15
char id=229  x=320   y=137   width=17    height=29    xoffset=0     yoffset=5     xadvance=17    page=0  chnl=15
char id=230  x=339   y=382   width=28    height=18    xoffset=-1    yoffset=16    xadvance=27    page=0  chnl=15
char id=231  x=438   y=330   width=16    height=25    xoffset=0     yoffset=16    xadvance=15    page=0  chnl=15
char id=232  x=355   y=194   width=17    height=27    xoffset=0     yoffset=7     xadvance=17    page=0  chnl=15
char id=233  x=468   y=163   width=17    height=27    xoffset=0     yoffset=7     xadvance=17    page=0  chnl=15
char id=234  x=486   y=162   width=17    height=27    xoffset=0     yoffset=7     xadvance=17    page=0  chnl=15
char id=235  x=385   y=331   width=17    height=25    xoffset=0     yoffset=9     xadvance=17    page=0  chnl=15
char id=236  x=497   y=102   width=10    height=27    xoffset=-1    yoffset=7     xadvance=8     page=0  chnl=15
char id=237  x=500   y=130   width=10    height=27    xoffset=1     yoffset=7     xadvance=8     page=0  chnl=15
char id=238  x=460   y=191   width=16    height=27    xoffset=-3    yoffset=7     xadvance=8     page=0  chnl=15
char id=239  x=373   y=357   width=13    height=24    xoffset=-2    yoffset=10    xadvance=8     page=0  chnl=15
char id=240  x=475   y=300   width=15    height=26    xoffset=0     yoffset=8     xadvance=15    page=0  chnl=15
char id=241  x=341   y=277   width=18    height=26    xoffset=0     yoffset=8     xadvance=16    page=0  chnl=15
char id=242  x=301   y=195   width=17    height=27    xoffset=0     yoffset=7     xadvance=16    page=0  chnl=15
char id=243  x=319   y=195   width=17    height=27    xoffset=-1    yoffset=7     xadvance=16    page=0  chnl=15
char id=244  x=337   y=195   width=17    height=27    xoffset=0     yoffset=7     xadvance=16    page=0  chnl=15
char id=245  x=450   y=249   width=19    height=26    xoffset=0     yoffset=8     xadvance=16    page=0  chnl=15
char id=246  x=338   y=357   width=17    height=24    xoffset=-1    yoffset=10    xadvance=16    page=0  chnl=15
char id=247  x=189   y=414   width=15    height=15    xoffset=1     yoffset=15    xadvance=18    page=0  chnl=15
char id=248  x=410   y=380   width=18    height=18    xoffset=-1    yoffset=16    xadvance=16    page=0  chnl=15
char id=249  x=426   y=194   width=16    height=27    xoffset=1     yoffset=7     xadvance=16    page=0  chnl=15
char id=250  x=443   y=194   width=16    height=27    xoffset=1     yoffset=7     xadvance=16    page=0  chnl=15
char id=251  x=450   y=163   width=17    height=27    xoffset=1     yoffset=7     xadvance=16    page=0  chnl=15
char id=252  x=356   y=357   width=16    height=24    xoffset=1     yoffset=10    xadvance=16    page=0  chnl=15
char id=253  x=391   y=36    width=18    height=34    xoffset=0     yoffset=7     xadvance=17    page=0  chnl=15
char id=254  x=410   y=35    width=16    height=34    xoffset=1     yoffset=8     xadvance=16    page=0  chnl=15
char id=255  x=391   y=105   width=18    height=31    xoffset=0     yoffset=10    xadvance=17    page=0  chnl=15
